/Users/hghadhab/eclipse-workspace/FreeboxConnect/src/test/java/tests/AndroidTests/HomePageTests/ConnectionStatusTests.java
/Users/hghadhab/eclipse-workspace/FreeboxConnect/src/test/java/tests/AndroidTests/DevicesTests/ConnectedDevicesTests.java
/Users/hghadhab/eclipse-workspace/FreeboxConnect/src/test/java/tests/AndroidTests/HomePageTests/RepeaterTests.java
/Users/hghadhab/eclipse-workspace/FreeboxConnect/src/test/java/pages/HomePagePages/ShareWifiAccessPage.java
/Users/hghadhab/eclipse-workspace/FreeboxConnect/src/test/java/pages/ProfilesPages/ProfilesPages.java
/Users/hghadhab/eclipse-workspace/FreeboxConnect/src/test/java/pages/DevicesPages/CommonDevicesPages.java
/Users/hghadhab/eclipse-workspace/FreeboxConnect/src/test/java/Strings/HomePageStrings/ConnexionStatusStrings.java
/Users/hghadhab/eclipse-workspace/FreeboxConnect/src/test/java/tests/AndroidTests/ProfilesTests/ProfilesTests.java
/Users/hghadhab/eclipse-workspace/FreeboxConnect/src/test/java/tests/AndroidTests/NetworkTests/DiagWiFiTests.java
/Users/hghadhab/eclipse-workspace/FreeboxConnect/src/test/java/Strings/HomePageStrings/PlayersStrings.java
/Users/hghadhab/eclipse-workspace/FreeboxConnect/src/test/java/tests/AndroidTests/HomePageTests/ShareWifiAccessTests.java
/Users/hghadhab/eclipse-workspace/FreeboxConnect/src/test/java/pages/DevicesPages/RecentlyLoggedDevicesPages.java
/Users/hghadhab/eclipse-workspace/FreeboxConnect/src/test/java/tests/AndroidTests/NetworkTests/MyNetwork.java
/Users/hghadhab/eclipse-workspace/FreeboxConnect/src/test/java/Strings/HomePageStrings/RepeaterStrings.java
/Users/hghadhab/eclipse-workspace/FreeboxConnect/src/test/java/tests/AndroidTests/DevicesTests/RecentlyLoggedDevicesTests.java
/Users/hghadhab/eclipse-workspace/FreeboxConnect/src/test/java/elements/CommonElements.java
/Users/hghadhab/eclipse-workspace/FreeboxConnect/src/test/java/tests/AndroidTests/HomePageTests/PlayerDeltaTests.java
/Users/hghadhab/eclipse-workspace/FreeboxConnect/src/test/java/pages/HomePagePages/HomeConnectionStatus.java
/Users/hghadhab/eclipse-workspace/FreeboxConnect/src/test/java/Strings/HomePageStrings/ShareWifiAccessStrings.java
/Users/hghadhab/eclipse-workspace/FreeboxConnect/src/test/java/pages/HomePagePages/PlayerPage.java
/Users/hghadhab/eclipse-workspace/FreeboxConnect/src/test/java/tests/AndroidTests/AndroidDeepLink.java
/Users/hghadhab/eclipse-workspace/FreeboxConnect/src/test/java/Strings/ProfilesStrings/ProfilesStrings.java
/Users/hghadhab/eclipse-workspace/FreeboxConnect/src/test/java/Strings/NetworkStrings/NetworkStrings.java
/Users/hghadhab/eclipse-workspace/FreeboxConnect/src/test/java/tests/ExtentReport/ExtentReportsFree.java
/Users/hghadhab/eclipse-workspace/FreeboxConnect/src/test/java/Strings/DevicesStrings/CommonDevicesStrings.java
/Users/hghadhab/eclipse-workspace/FreeboxConnect/src/test/java/pages/MorePages/MorePages.java
/Users/hghadhab/eclipse-workspace/FreeboxConnect/src/test/java/pages/HomePagePages/RepeaterPage.java
/Users/hghadhab/eclipse-workspace/FreeboxConnect/src/test/java/Strings/DevicesStrings/ConnectedDevicesStrings.java
/Users/hghadhab/eclipse-workspace/FreeboxConnect/src/test/java/tests/Base/BaseClass.java
/Users/hghadhab/eclipse-workspace/FreeboxConnect/src/test/java/Strings/CommonStrings.java
/Users/hghadhab/eclipse-workspace/FreeboxConnect/src/test/java/tests/AndroidTests/HomePageTests/FreeBoxDeltaTests.java
/Users/hghadhab/eclipse-workspace/FreeboxConnect/src/test/java/pages/HomePagePages/ServerPage.java
/Users/hghadhab/eclipse-workspace/FreeboxConnect/src/test/java/Strings/MoreStrings/MoreStrings.java
/Users/hghadhab/eclipse-workspace/FreeboxConnect/src/test/java/tests/AndroidTests/NetworkTests/PlannedWifiShutdownTests.java
/Users/hghadhab/eclipse-workspace/FreeboxConnect/src/test/java/pages/DevicesPages/ConnectedDevicesPages.java
/Users/hghadhab/eclipse-workspace/FreeboxConnect/src/test/java/tests/AndroidTests/NetworkTests/WiFiRestrictionsTests.java
/Users/hghadhab/eclipse-workspace/FreeboxConnect/src/test/java/tests/AndroidTests/MoreTests/MoreTests.java
/Users/hghadhab/eclipse-workspace/FreeboxConnect/src/test/java/Strings/DevicesStrings/RecentlyLoggedDevicesStrings.java
/Users/hghadhab/eclipse-workspace/FreeboxConnect/src/test/java/pages/NetworkPages/NetworkPages.java
/Users/hghadhab/eclipse-workspace/FreeboxConnect/src/test/java/Strings/HomePageStrings/FreeBoxDeltaStrings.java
